{
    "": [],
    "_erreur": [
        "_archive",
        "_erreur"
    ],
    "concours": [
        "concours",
        "Fesic",
        "Puissance11",
        "PuissanceAlpha",
        "TSATSEEAC",
        "Accès",
        "Advance",
        "Avenir",
        "ENAC",
        "ENIGEIPI",
        "STI2DSTL",
        "ENSM",
        "ESA",
        "officier",
        "douanes",
        "SciencesPo",
        "concoursA",
        "concoursB",
        "1997",
        "1998",
        "1999",
        "2000",
        "2001",
        "2002",
        "2003",
        "2004",
        "2005",
        "2006",
        "2007",
        "2008",
        "2009",
        "2010",
        "2011",
        "2012",
        "2013",
        "2014",
        "2015",
        "2016",
        "2017",
        "2018",
        "2019",
        "2020",
        "2021",
        "2022",
        "2023",
        "2024",
        "mai",
        "surveillance",
        "pilote",
        "opérationscommerciales",
        "zéro",
        "vraifaux",
        "oral",
        "optionnelle",
        "corrigé"
    ],
    "examens": [
        "examens",
        "étranger",
        "BEP",
        "BEPC",
        "BTS",
        "CAP",
        "EC",
        "Abitur",
        "Maturité",
        "bacA1",
        "bacB",
        "bacC",
        "bacE",
        "bacES",
        "bacF11",
        "bacL",
        "bacS",
        "bacSMS",
        "bacST2S",
        "bacSTAESTPA",
        "bacSTAV",
        "bacSTD2A",
        "bacSTD2ASTI2DSTI",
        "bacSTD2ASTI2DSTL",
        "bacSTD2ASTL",
        "bacSTG",
        "bacSTI",
        "bacSTI2D",
        "bacSTI2DSTL",
        "bacSTL",
        "bacSTMG",
        "bacSTT",
        "bacTMD",
        "bacVieux",
        "bacgénéral",
        "bactechnologique",
        "TeSciA",
        "brevet",
        "brevetprofessionnel",
        "brevettechnologique",
        "faculté",
        "hotellerie",
        "général",
        "première",
        "spécialité",
        "technologique",
        "terminale",
        "épreuvesterminales",
        "1865",
        "1896",
        "1937",
        "1941",
        "1946",
        "1947",
        "1948",
        "1949",
        "1950",
        "1951",
        "1952",
        "1953",
        "1954",
        "1955",
        "1956",
        "1957",
        "1958",
        "1959",
        "1960",
        "1961",
        "1962",
        "1963",
        "1964",
        "1965",
        "1966",
        "1967",
        "1968",
        "1969",
        "1970",
        "1971",
        "1972",
        "1973",
        "1974",
        "1975",
        "1976",
        "1977",
        "1978",
        "1979",
        "1980",
        "1981",
        "1982",
        "1983",
        "1984",
        "1985",
        "1986",
        "1987",
        "1988",
        "1989",
        "1990",
        "1991",
        "1992",
        "1993",
        "1994",
        "1995",
        "1996",
        "1997",
        "1998",
        "1999",
        "2000",
        "2001",
        "2002",
        "2003",
        "2004",
        "2005",
        "2006",
        "2007",
        "2008",
        "2009",
        "2010",
        "2011",
        "2012",
        "2013",
        "2014",
        "2015",
        "2016",
        "2017",
        "2018",
        "2019",
        "2020",
        "2021",
        "2022",
        "2023",
        "2024",
        "zéro",
        "exercices",
        "spécimen",
        "inspection",
        "année",
        "ACAACC",
        "ArtsAppliqués",
        "AssistantCreationIndustrielle",
        "CGIG",
        "CGRH",
        "ConceptionProduitsIndustriels",
        "SIO",
        "biochimie",
        "biotechnologies",
        "chimiedelaboratoire",
        "chimiste",
        "comptabilitégestion",
        "designespace",
        "groupementA",
        "groupementA1",
        "groupementA2",
        "groupementB",
        "groupementB1",
        "groupementB2",
        "groupementB3",
        "groupementB4",
        "groupementC",
        "groupementC1",
        "groupementC2",
        "groupementD",
        "groupementD1",
        "groupementD2",
        "groupementE",
        "groupementE1",
        "groupementF",
        "géniecivil",
        "géniedesmatériaux",
        "génieélectronique",
        "géomètretopographe",
        "infogestion",
        "mathinfo",
        "mercatique",
        "opticienlunetier",
        "physiquechimiemath",
        "physiquelaboratoire",
        "physiquemath",
        "systèmesnumériques",
        "étudeetréalisationagencements",
        "facultatif",
        "approfondies",
        "obligatoire",
        "janvier",
        "février",
        "mars",
        "avril",
        "mai",
        "juin",
        "juillet",
        "août",
        "septembre",
        "octobre",
        "novembre",
        "décembre",
        "AEA",
        "AEF",
        "AOF",
        "Abidjan",
        "AdisAbeba",
        "Afghanistan",
        "Afrique",
        "Afrique1",
        "Afrique2",
        "Afrique3",
        "AfriqueA",
        "AfriqueB",
        "AfriqueOccidentale",
        "Aix",
        "Albanie",
        "Alger",
        "Algérie",
        "Allemagne",
        "Amiens",
        "Amérique",
        "AmériqueCentrale",
        "AmériqueDuNord",
        "AmériqueDuSud",
        "AmériqueLatine",
        "Angers",
        "Antilles",
        "Asie",
        "AsieDuSudEst",
        "Athènes",
        "Australie",
        "Autriche",
        "Belgique",
        "Berlin",
        "Barcelone",
        "Besançon",
        "Birmanie",
        "Bordeaux",
        "Brésil",
        "Brazaville",
        "Bucarest",
        "BuenosAires",
        "BurkinaFaso",
        "Burundi",
        "Caen",
        "Cambodge",
        "Cameroun",
        "CamerounNord",
        "CamerounSud",
        "Caracas",
        "CentresÉtrangers",
        "Centrafrique",
        "ClermontFerrand",
        "Comores",
        "Congo",
        "Corse",
        "Créteil",
        "CôteDIvoire",
        "Dahomey",
        "Dakar",
        "Dijon",
        "Djibouti",
        "Einstein",
        "Espagne",
        "EuropeCentrale",
        "EuropeDuNord",
        "EuropeEst",
        "ExtrèmeOrient",
        "Gabon",
        "Grenoble",
        "Grèce",
        "Guadeloupe",
        "Guyane",
        "Hanoï",
        "HauteVolta",
        "HoChiMinhVille",
        "HongKong",
        "Hué",
        "Inde",
        "Indochine",
        "IndochineDuNord",
        "IndochineDuSud",
        "Irak",
        "Israël",
        "Istanbul",
        "Japon",
        "Kaboul",
        "Khmer",
        "Klein",
        "Koweit",
        "LaRéunion",
        "LaHaye",
        "Laos",
        "Lausanne",
        "Liban",
        "Lille",
        "Limoges",
        "Lisbonne",
        "Lomé",
        "Lyon",
        "Madagascar",
        "Madrid",
        "MaineEtLoire",
        "Mali",
        "Maroc",
        "Marseille",
        "Martinique",
        "Mauritanie",
        "Maurice",
        "Mayenne",
        "Mayotte",
        "Metz",
        "Mexico",
        "Mexique",
        "Montpellier",
        "Montréal",
        "MoyenOrient",
        "Méditerranée",
        "Métropole",
        "Nancy",
        "Nantes",
        "NewYork",
        "Niamey",
        "Nice",
        "Niger",
        "Nord",
        "NouvelleCalédonie",
        "Nouméa",
        "NouvellesHébrides",
        "Orléans",
        "OutreMer",
        "Pakistan",
        "Papeete",
        "Paris",
        "Poitiers",
        "Polynésie",
        "Pondichéry",
        "Portugal",
        "Reims",
        "Rennes",
        "RioDeJaneiro",
        "Rome",
        "Rouen",
        "RépubliqueCentrafricaine",
        "SaintPierreEtMiquelon",
        "Saïgon",
        "Salonique",
        "SaoPaulo",
        "Sarthe",
        "Scandinavie",
        "SeineEtMarne",
        "Stockholm",
        "Strasbourg",
        "Suisse",
        "Syrie",
        "Damas",
        "Sénégal",
        "AddisAbeba",
        "Tahiti",
        "Tchad",
        "TelAviv",
        "Thailande",
        "Togo",
        "Téhéran",
        "Toulouse",
        "Tours",
        "Tunis",
        "Turquie",
        "Tunisie",
        "Vanuatu",
        "Vendée",
        "Versailles",
        "Vientane",
        "Vienne",
        "Vietnam",
        "VietnamNord",
        "VietnamSud",
        "Vénézuéla",
        "WallisEtFutuna",
        "candidatslibres",
        "groupement1",
        "groupement2",
        "groupement3",
        "groupement4",
        "groupement5",
        "groupementEst",
        "groupementNord",
        "groupementOuest",
        "groupementSud",
        "interacadémique",
        "international",
        "sportifs",
        "Égypte",
        "ÉtatsAssociés",
        "Éthiopie",
        "secteur1",
        "secteur2",
        "secteur3",
        "secteur4",
        "secteur5",
        "secteur6",
        "secteur7",
        "autoA",
        "autoB",
        "autoC",
        "autoE",
        "experte",
        "générale",
        "optionA",
        "optionB",
        "sujet0000",
        "sujet0099",
        "sujet0118",
        "sujet0120",
        "sujet0124",
        "sujet0125",
        "sujet0166",
        "sujet0170",
        "sujet0217",
        "sujet0218",
        "sujet0322",
        "sujet0726",
        "sujet0741",
        "sujet1092",
        "sujet1",
        "sujet2",
        "sujet01",
        "sujet02",
        "sujet03",
        "sujet04",
        "sujet05",
        "sujet06",
        "sujet07",
        "sujet08",
        "sujet09",
        "sujet10",
        "sujet11",
        "sujet12",
        "sujet13",
        "sujet14",
        "sujet15",
        "sujet16",
        "sujet17",
        "sujet18",
        "sujet19",
        "sujet20",
        "sujet21",
        "sujet22",
        "sujet23",
        "sujet24",
        "sujet25",
        "sujet26",
        "sujet27",
        "sujet28",
        "sujet29",
        "sujet30",
        "sujet31",
        "sujet32",
        "sujet33",
        "sujet34",
        "sujet35",
        "sujet36",
        "sujet37",
        "sujet38",
        "sujet39",
        "sujet40",
        "sujet41",
        "sujet42",
        "sujet43",
        "sujet44",
        "sujet45",
        "sujet46",
        "sujet47",
        "sujet48",
        "sujet49",
        "sujet50",
        "sujet51",
        "sujet52",
        "sujet53",
        "sujet54",
        "sujet55",
        "sujet56",
        "sujet57",
        "sujet58",
        "sujet59",
        "sujet60",
        "sujet61",
        "sujet62",
        "sujet63",
        "sujet64",
        "sujet65",
        "sujet66",
        "sujet67",
        "sujet68",
        "sujet69",
        "sujet70",
        "sujet71",
        "sujet72",
        "sujet73",
        "sujet74",
        "sujet75",
        "sujet76",
        "sujet77",
        "sujet78",
        "sujet79",
        "sujet80",
        "sujet81",
        "épreuve1",
        "épreuve2",
        "blanc",
        "compilation",
        "QCM",
        "algorithmes",
        "complexes",
        "fonctions",
        "géométrie",
        "probabilités",
        "roc",
        "suites",
        "annulé",
        "dévoilé",
        "réserve",
        "malvoyant",
        "refait",
        "remplacement",
        "rattrapage",
        "scratch",
        "secours",
        "volées",
        "corrigé"
    ],
    "olympiades": [
        "concoursgénéral",
        "olympiades",
        "quatrième",
        "1990",
        "1991",
        "1992",
        "1993",
        "1994",
        "1995",
        "1996",
        "1997",
        "1998",
        "1999",
        "2000",
        "2001",
        "2002",
        "2003",
        "2004",
        "2005",
        "2006",
        "2007",
        "2008",
        "2009",
        "2010",
        "2011",
        "2012",
        "2013",
        "2014",
        "2015",
        "2016",
        "2017",
        "2018",
        "2019",
        "2020",
        "2021",
        "2022",
        "2023",
        "2024",
        "compilation",
        "académiques",
        "Afrique",
        "Aix",
        "Amiens",
        "Amériques",
        "Antilles",
        "AsiePacifique",
        "Besançon",
        "Besancon",
        "Bordeaux",
        "Caen",
        "ClermontFerrand",
        "Corse",
        "Créteil",
        "Creteil",
        "Europe",
        "Grenoble",
        "Guadeloupe",
        "Guyane",
        "Inde",
        "Lille",
        "Limoges",
        "Lyon",
        "Marseille",
        "Metz",
        "Montpellier",
        "Métropole",
        "MoyenOrient",
        "Nancy",
        "Nantes",
        "Nice",
        "Normandie",
        "NouvelleCalédonie",
        "Orléans",
        "Paris",
        "Poitiers",
        "Polynésie",
        "Rennes",
        "Rouen",
        "Strasbourg",
        "Toulouse",
        "Tours",
        "Versailles",
        "internationales",
        "nationale",
        "individuel",
        "équipe",
        "arithmétique",
        "géometrie",
        "numération",
        "pourcentages",
        "probabilités",
        "statistiques",
        "suites",
        "exo1",
        "exo2",
        "exo3",
        "exo4",
        "exo6",
        "corrigé"
    ],
    "recrutement": [
        "recrutement",
        "premierdegré",
        "seconddegré",
        "agrégation",
        "CRPE",
        "CAPLP",
        "CAPES",
        "externe",
        "interne",
        "Mayotte",
        "2005",
        "2006",
        "2007",
        "2008",
        "2009",
        "2010",
        "2011",
        "2012",
        "2013",
        "2014",
        "2015",
        "2016",
        "2017",
        "2018",
        "2019",
        "2020",
        "2021",
        "2022",
        "2023",
        "2024",
        "zéro",
        "épreuve1",
        "épreuve2",
        "épreuve3",
        "sujet1",
        "sujet2",
        "sujet3",
        "spécial",
        "informatique",
        "remplacement",
        "annulé",
        "explications",
        "corrigé"
    ]
}